[
	{
		"src": "../images/am-s.png",
		"srcModal": "../images/aa-b.png",
		"name": "Anti-Mage",
		"desc": "Mirana, the Princess of the Moon, is a ranged agility hero that uses her abilities to surprise, chase, and assault enemies.",
		"hp": 560,
		"mp": 560
	},
	{
		"src": "../images/ember-s.png",
		"srcModal": "../images/jug-b.png",
		"name": "DK",
		"desc": "Mirana, the Princess of the Moon, is a ranged agility hero that uses her abilities to surprise, chase, and assault enemies.",
		"hp": 560,
		"mp": 560
	},
	{
		"src": "../images/riki-s.png",
		"srcModal": "../images/morf-b1.png",
		"name": "DK",
		"desc": "Mirana, the Princess of the Moon, is a ranged agility hero that uses her abilities to surprise, chase, and assault enemies.",
		"hp": 560,
		"mp": 560
	}
]
